…
    ## Warning in full_join(dn_nc, lq_nc, by = "state"): Detected an unexpected many-to-many relationship between `x` and `y`.
    ## ℹ Row 1 of `x` matches multiple rows in `y`.
    ## ℹ Row 1 of `y` matches multiple rows in `x`.
    ## ℹ If a many-to-many relationship is expected, set `relationship =
    ##   "many-to-many"` to silence this warning.

``` r
dn_lq_nc
```

    ## # A tibble: 336 × 11
    ##    address.x    city.x state zip.x longitude.x latitude.x address.y city.y zip.y
    ##    <chr>        <chr>  <chr> <chr>       <dbl>      <dbl> <chr>     <chr>  <chr>
    ##  1 1 Regent Pa… Ashev… NC    28806       -82.6       35.6 165 Hwy … "\nBo… 28607
    ##  2 1 Regent Pa… Ashev… NC    28806       -82.6       35.6 3127 Slo… "\nCh… 28208
    ##  3 1 Regent Pa… Ashev… NC    28806       -82.6       35.6 4900 Sou… "\nCh… 28217
    ##  4 1 Regent Pa… Ashev… NC    28806       -82.6       35.6 4414 Dur… "\nDu… 27707
    ##  5 1 Regent Pa… Ashev… NC    28806       -82.6       35.6 1910 Wes… "\nDu… 27713
    ##  6 1 Regent Pa… Ashev… NC    28806       -82.6       35.6 1201 Lan… "\nGr… 27407
    ##  7 1 Regent Pa… Ashev… NC    28806       -82.6       35.6 1607 Fai… "\nCo… 28613
    ##  8 1 Regent Pa… Ashev… NC    28806       -82.6       35.6 191 Cres… "\nCa… 27518
    ##  9 1 Regent Pa… Ashev… NC    28806       -82.6       35.6 2211 Sum… "\nRa… 27612
    ## 10 1 Regent Pa… Ashev… NC    28806       -82.6       35.6 1001 Aer… "\nMo… 27560
    ## # ℹ 326 more rows
    ## # ℹ 2 more variables: longitude.y <dbl>, latitude.y <dbl>
…
    ## Warning in full_join(dn_tx, lq_tx, by = "state"): Detected an unexpected many-to-many relationship between `x` and `y`.
    ## ℹ Row 1 of `x` matches multiple rows in `y`.
    ## ℹ Row 1 of `y` matches multiple rows in `x`.
    ## ℹ If a many-to-many relationship is expected, set `relationship =
    ##   "many-to-many"` to silence this warning.

``` r
dn_lq_tx
```

    ## # A tibble: 47,400 × 11
    ##    address.x    city.x state zip.x longitude.x latitude.x address.y city.y zip.y
    ##    <chr>        <chr>  <chr> <chr>       <dbl>      <dbl> <chr>     <chr>  <chr>
    ##  1 120 East I-… Abile… TX    79601       -99.6       32.4 3018 Cat… "\nAb… 79606
    ##  2 120 East I-… Abile… TX    79601       -99.6       32.4 3501 Wes… "\nAb… 79601
    ##  3 120 East I-… Abile… TX    79601       -99.6       32.4 14925 La… "\nAd… 75254
    ##  4 120 East I-… Abile… TX    79601       -99.6       32.4 909 East… "\nAl… 78516
    ##  5 120 East I-… Abile… TX    79601       -99.6       32.4 2400 Eas… "\nAl… 78332
    ##  6 120 East I-… Abile… TX    79601       -99.6       32.4 1220 Nor… "\nAl… 75013
    ##  7 120 East I-… Abile… TX    79601       -99.6       32.4 1165 Hwy… "\nAl… 76009
    ##  8 120 East I-… Abile… TX    79601       -99.6       32.4 880 Sout… "\nAl… 77511
    ##  9 120 East I-… Abile… TX    79601       -99.6       32.4 1708 Int… "\nAm… 79103
    ## 10 120 East I-… Abile… TX    79601       -99.6       32.4 9305 Eas… "\nAm… 79118
    ## # ℹ 47,390 more rows
    ## # ℹ 2 more variables: longitude.y <dbl>, latitude.y <dbl>
…
    ## Warning in full_join(dn_il, lq_il, by = "state"): Detected an unexpected many-to-many relationship between `x` and `y`.
    ## ℹ Row 1 of `x` matches multiple rows in `y`.
    ## ℹ Row 1 of `y` matches multiple rows in `x`.
    ## ℹ If a many-to-many relationship is expected, set `relationship =
    ##   "many-to-many"` to silence this warning.

``` r
dn_lq_il
```

    ## # A tibble: 952 × 11
    ##    address.x    city.x state zip.x longitude.x latitude.x address.y city.y zip.y
    ##    <chr>        <chr>  <chr> <chr>       <dbl>      <dbl> <chr>     <chr>  <chr>
    ##  1 140 Racehor… Alort… IL    62205       -90.1       38.6 1900 Cen… "\nCh… 61820
    ##  2 140 Racehor… Alort… IL    62205       -90.1       38.6 One Sout… "\nCh… 60606
    ##  3 140 Racehor… Alort… IL    62205       -90.1       38.6 5688 Nor… "\nGu… 60031
    ##  4 140 Racehor… Alort… IL    62205       -90.1       38.6 4900A S.… "\nCh… 60615
    ##  5 140 Racehor… Alort… IL    62205       -90.1       38.6 2000 Sou… "\nBa… 60015
    ##  6 140 Racehor… Alort… IL    62205       -90.1       38.6 1900 Eas… "\nEl… 60007
    ##  7 140 Racehor… Alort… IL    62205       -90.1       38.6 1 South … "\nOa… 60181
    ##  8 140 Racehor… Alort… IL    62205       -90.1       38.6 7255 Wes… "\nTi… 60477
    ##  9 140 Racehor… Alort… IL    62205       -90.1       38.6 855 79th… "\nWi… 60527
    ## 10 140 Racehor… Alort… IL    62205       -90.1       38.6 6 Gatewa… "\nCo… 62234
    ## # ℹ 942 more rows
    ## # ℹ 2 more variables: longitude.y <dbl>, latitude.y <dbl>
…
